Assignment 4: Almond Model
…
plot_all

# A tibble: 6,600 × 3
    year name   value
   <int> <chr>  <dbl>
 1  1989 X1    -1394.
 2  1989 X2    -1567.
 3  1989 X3    -1413.
 4  1989 X4    -1549.
 5  1989 X5    -1376.
 6  1989 X6    -1399.
 7  1989 X7    -1489.
 8  1989 X8    -1609.
 9  1989 X9    -1138.
10  1989 X10   -1403.
# ℹ 6,590 more rows
…
plot_wo_1995

# A tibble: 6,300 × 3
    year name   value
   <int> <chr>  <dbl>
 1  1989 X1    -1394.
 2  1989 X2    -1567.
 3  1989 X3    -1413.
 4  1989 X4    -1549.
 5  1989 X5    -1376.
 6  1989 X6    -1399.
 7  1989 X7    -1489.
 8  1989 X8    -1609.
 9  1989 X9    -1138.
10  1989 X10   -1403.
# ℹ 6,290 more rows
